3 MaskChannels.ch_001_008                   0xff
3 MaskChannels.ch_009_016                   0xff
3 MaskChannels.ch_017_024                   0xff
3 MaskChannels.ch_025_032                   0xff
3 MaskChannels.ch_033_040                   0xff
3 MaskChannels.ch_041_048                   0xff
3 MaskChannels.ch_049_056                   0xff
3 MaskChannels.ch_057_064                   0xff
3 MaskChannels.ch_065_072                   0xff
3 MaskChannels.ch_073_080                   0xff
3 MaskChannels.ch_081_088                   0xff
3 MaskChannels.ch_089_096                   0xff
3 MaskChannels.ch_097_104                   0xff
3 MaskChannels.ch_105_112                   0xff
3 MaskChannels.ch_113_120                   0xff
3 MaskChannels.ch_121_128                   0xff
3 MaskChannels.ch_129_136                   0xff
3 MaskChannels.ch_137_144                   0xff
3 MaskChannels.ch_145_152                   0xff
3 MaskChannels.ch_153_160                   0xff
3 MaskChannels.ch_161_168                   0xff
3 MaskChannels.ch_169_176                   0xff
3 MaskChannels.ch_177_184                   0xff
3 MaskChannels.ch_185_192                   0xff
3 MaskChannels.ch_193_200                   0xff
3 MaskChannels.ch_201_208                   0xff
3 MaskChannels.ch_209_216                   0xff
3 MaskChannels.ch_217_224                   0xff
3 MaskChannels.ch_225_232                   0xff
3 MaskChannels.ch_233_240                   0xff
3 MaskChannels.ch_241_248                   0xff
3 MaskChannels.ch_249_254                   0xff
