3 HipAndTestMode.hip_count                     0 
3 HipAndTestMode.hip_supp                      0 #hip suppression enabled. set 1 to disable 
3 HipAndTestMode.hip_src                       1 
3 PlStLogicSelAndPtWidth.pl_sel                1 #0: sample, 1: or, 2: hip suppressed, 3: fixed pulse width
3 PlStLogicSelAndPtWidth.st_sel                2 #0: sample, 1: or, 2: hip suppressed, 3: fixed pulse width
