1 0 124
1 1 200
1 2 24
1 3 70
1 4 46
1 5 122
1 6 106
1 7 75
1 9 35
1 11 119
1 12 20
1 13 0
1 14 0
1 15 0
1 16 100
1 17 63
1 18 3
1 19 0
1 20 0
1 21 0
1 22 0
1 23 0
1 24 0
1 27 0
1 28 0
1 29 0
1 32 255
1 33 255
1 34 255
1 35 255
1 36 255
1 37 255
1 38 255
1 39 255
1 40 255
1 41 255
1 42 255
1 43 255
1 44 255
1 45 255
1 46 255
1 47 255
1 48 255
1 49 255
1 50 255
1 51 255
1 52 255
1 53 255
1 54 255
1 55 255
1 56 255
1 57 255
1 58 255
1 59 255
1 60 255
1 61 255
1 62 255
1 63 255
1 64 153
1 65 170
1 66 187
1 67 204
1 68 221
1 69 238
1 70 255
1 71 0
1 72 17
1 73 34
1 74 51
1 75 68
1 76 85
1 77 102
1 78 135
1 79 0
1 80 2
2 1 128
2 2 128
2 3 128
2 4 128
2 5 128
2 6 128
2 7 128
2 8 128
2 9 128
2 10 128
2 11 128
2 12 128
2 13 128
2 14 128
2 15 128
2 16 128
2 17 128
2 18 128
2 19 128
2 20 128
2 21 128
2 22 128
2 23 128
2 24 128
2 25 128
2 26 128
2 27 128
2 28 128
2 29 128
2 30 128
2 31 128
2 32 128
2 33 128
2 34 128
2 35 128
2 36 128
2 37 128
2 38 128
2 39 128
2 40 128
2 41 128
2 42 128
2 43 128
2 44 128
2 45 128
2 46 128
2 47 128
2 48 128
2 49 128
2 50 128
2 51 128
2 52 128
2 53 128
2 54 128
2 55 128
2 56 128
2 57 128
2 58 128
2 59 128
2 60 128
2 61 128
2 62 128
2 63 128
2 64 128
2 65 128
2 66 128
2 67 128
2 68 128
2 69 128
2 70 128
2 71 128
2 72 128
2 73 128
2 74 128
2 75 128
2 76 128
2 77 128
2 78 128
2 79 128
2 80 128
2 81 128
2 82 128
2 83 128
2 84 128
2 85 128
2 86 128
2 87 128
2 88 128
2 89 128
2 90 128
2 91 128
2 92 128
2 93 128
2 94 128
2 95 128
2 96 128
2 97 128
2 98 128
2 99 128
2 100 128
2 101 128
2 102 128
2 103 128
2 104 128
2 105 128
2 106 128
2 107 128
2 108 128
2 109 128
2 110 128
2 111 128
2 112 128
2 113 128
2 114 128
2 115 128
2 116 128
2 117 128
2 118 128
2 119 128
2 120 128
2 121 128
2 122 128
2 123 128
2 124 128
2 125 128
2 126 128
2 127 128
2 128 128
2 129 128
2 130 128
2 131 128
2 132 128
2 133 128
2 134 128
2 135 128
2 136 128
2 137 128
2 138 128
2 139 128
2 140 128
2 141 128
2 142 128
2 143 128
2 144 128
2 145 128
2 146 128
2 147 128
2 148 128
2 149 128
2 150 128
2 151 128
2 152 128
2 153 128
2 154 128
2 155 128
2 156 128
2 157 128
2 158 128
2 159 128
2 160 128
2 161 128
2 162 128
2 163 128
2 164 128
2 165 128
2 166 128
2 167 128
2 168 128
2 169 128
2 170 128
2 171 128
2 172 128
2 173 128
2 174 128
2 175 128
2 176 128
2 177 128
2 178 128
2 179 128
2 180 128
2 181 128
2 182 128
2 183 128
2 184 128
2 185 128
2 186 128
2 187 128
2 188 128
2 189 128
2 190 128
2 191 128
2 192 128
2 193 128
2 194 128
2 195 128
2 196 128
2 197 128
2 198 128
2 199 128
2 200 128
2 201 128
2 202 128
2 203 128
2 204 128
2 205 128
2 206 128
2 207 128
2 208 128
2 209 128
2 210 128
2 211 128
2 212 128
2 213 128
2 214 128
2 215 128
2 216 128
2 217 128
2 218 128
2 219 128
2 220 128
2 221 128
2 222 128
2 223 128
2 224 128
2 225 128
2 226 128
2 227 128
2 228 128
2 229 128
2 230 128
2 231 128
2 232 128
2 233 128
2 234 128
2 235 128
2 236 128
2 237 128
2 238 128
2 239 128
2 240 128
2 241 128
2 242 128
2 243 128
2 244 128
2 245 128
2 246 128
2 247 128
2 248 128
2 249 128
2 250 128
2 251 128
2 252 128
2 253 128
2 254 128
2 255 128
